…
In classical models, getting the fitted values is easily done by adding a column of `fitted()` values to dataframe or using `predict()` on some new observations.

Because the posterior of this model contains 4000 such fitted or predicted values, more data wrangling and reshaping is required. `augment_posterior_linpred()` automates this task by producing a long dataframe with one row per posterior fitted value.

Here, we tell the model that we want just 100 of those lines (i.e., 100 samples from the posterior distribution).

``` r
# Get the fitted means of the data for 100 samples of the posterior distribution
linear_preds <- augment_posterior_linpred(
  model = model, 
  newdata = iris, 
  nsamples = 100)
linear_preds
#> # A tibble: 14,500 x 10
#>    .observation .draw .posterior_value Sepal.Length Sepal.Width
#>           <int> <int>            <dbl>        <dbl>       <dbl>
#>  1            1     1       -1.0003247          5.1         3.5
#>  2            1     2       -0.9800408          5.1         3.5
#>  3            1     3       -1.0782613          5.1         3.5
#>  4            1     4       -1.1555150          5.1         3.5
#>  5            1     5       -1.0990496          5.1         3.5
#>  6            1     6       -0.9977267          5.1         3.5
#>  7            1     7       -1.1127216          5.1         3.5
#>  8            1     8       -0.9554037          5.1         3.5
#>  9            1     9       -1.0018127          5.1         3.5
#> 10            1    10       -1.0210712          5.1         3.5
#> # ... with 14,490 more rows, and 5 more variables: Petal.Length <dbl>,
#> #   Petal.Width <dbl>, Species <fctr>, z.Sepal.Length <dbl>,
#> #   z.Petal.Length <dbl>
```
…
# Within each species, generate a sequence of z.Petal.Length values
newdata <- iris %>% 
  group_by(Species) %>% 
  # Expand the range x value a little bit so that the points do not bulge out
  # left/right sides of the uncertainty ribbon in the plot
  data_grid(z.Petal.Length = z.Petal.Length %>% 
              seq_range(n = 80, expand = .10)) %>% 
  ungroup()

newdata$Petal.Length <- unscale(newdata$z.Petal.Length, iris$Petal.Length)

# Get posterior predictions
posterior_preds <- augment_posterior_predict(model, newdata)
posterior_preds
#> # A tibble: 960,000 x 6
#>    .observation .draw .posterior_value Species z.Petal.Length Petal.Length
#>           <int> <int>            <dbl>  <fctr>          <dbl>        <dbl>
#>  1            1     1       -1.5160539  setosa      -1.587834        0.955
#>  2            1     2       -1.1513862  setosa      -1.587834        0.955
#>  3            1     3       -1.2457199  setosa      -1.587834        0.955
#>  4            1     4       -1.9700178  setosa      -1.587834        0.955
#>  5            1     5       -1.4067362  setosa      -1.587834        0.955
#>  6            1     6       -1.3449140  setosa      -1.587834        0.955
#>  7            1     7       -1.2115145  setosa      -1.587834        0.955
#>  8            1     8       -0.8762633  setosa      -1.587834        0.955
#>  9            1     9       -1.5883634  setosa      -1.587834        0.955
#> 10            1    10       -1.3116756  setosa      -1.587834        0.955
#> # ... with 959,990 more rows
…
### Calculate *R*<sup>2</sup>

`calculate_model_r2()` returns the unadjusted *R*<sup>2</sup> for each draw of the posterior distribution.

``` r
df_r2 <- data_frame(
  R2 = calculate_model_r2(model)
)
df_r2
#> # A tibble: 4,000 x 1
#>           R2
#>        <dbl>
#>  1 0.8269203
#>  2 0.8260345
#>  3 0.8221425
#>  4 0.8270270
#>  5 0.8185265
#>  6 0.8261973
#>  7 0.8279846
#>  8 0.8254305
#>  9 0.8270019
#> 10 0.8320477
#> # ... with 3,990 more rows
```
…
